{
    "Name": "UberMain",
    "FileName": "UberMain",
    "Techniques": [
        {
            "TechniqueName": "PhongDirLtTexTechFilled",
        },
        {
            "TechniqueName": "PostProcess",
        },
		{
            "TechniqueName": "IlluminationBuffer",
        },
		{
            "TechniqueName": "PostSimple",
        },
		{
            "TechniqueName": "ShieldAlpha",
        },
    ],
    "Paramaters": [
        {
            "ParamaterName": "gWorld",
        },
        {
            "ParamaterName": "gWorldInvTrans",
        },
        {
            "ParamaterName": "gWVP",
        },
        {
            "ParamaterName": "gMtrl",
        },
        {
            "ParamaterName": "gLight",
        },
        {
            "ParamaterName": "gEyePosW",
        },
        {
            "ParamaterName": "gPostBuffer",
        },
        {
            "ParamaterName": "gDiffuseOn",
        },
		{
            "ParamaterName": "gAniOn",
        },
		{
            "ParamaterName": "gHasDiffuse",
        },
		{
            "ParamaterName": "gHasNormal",
        },
		{
            "ParamaterName": "gHasBump",
        },
		{
            "ParamaterName": "gHasSpecular",
        },
		{
            "ParamaterName": "gHasIllumination",
        },
		{
            "ParamaterName": "gTextureDiff",
        },
		{
            "ParamaterName": "gTextureNormal",
        },
		{
            "ParamaterName": "gTextureBump",
        },
		{
            "ParamaterName": "gTextureSpecular",
        },
		{
            "ParamaterName": "gTextureIllumination",
        },
		{
            "ParamaterName": "gShowBuffer",
        },
		{
            "ParamaterName": "gElapsedTime",
        },
		{
            "ParamaterName": "gIsSun",
        },
		{
            "ParamaterName": "gTexturePerlin",
        },
		{
            "ParamaterName": "gBufferIllumination",
        },
		{
            "ParamaterName": "gIlluminationFactor",
        },
		{
            "ParamaterName": "gShipStretch",
        },
		{
            "ParamaterName": "gAlphaLevel",
        },
		{
            "ParamaterName": "gShieldColor",
        },
		{
            "ParamaterName": "gShieldSize",
        },
		{
            "ParamaterName": "gContact",
        },
		{
            "ParamaterName": "gContactCount",
        },
		{
            "ParamaterName": "gStretchStart",
        },
		{
            "ParamaterName": "gShipReleaseStretch",
        },
    ],
}