{
    "Name": "Quest Demo",
    "Description": "A description of hte demo quest. Let's try to use the GUI!",
    "Objectives": [
        {
            "Name": "Pizza shaders",
            "Type": "1",
            "Number": "10",
        },
    ]
    "Rewards": [
        {
            "Type": "1",
            "Number": "1000",
        },
        {
            "Type": "2",
            "Number": "50000",
        },
    ]
}
